<?xml version="1.0" encoding="UTF-8" standalone="no"?>
<!-- Created with Inkscape (http://www.inkscape.org/) -->

<svg
   xmlns:dc="http://purl.org/dc/elements/1.1/"
   xmlns:cc="http://creativecommons.org/ns#"
   xmlns:rdf="http://www.w3.org/1999/02/22-rdf-syntax-ns#"
   xmlns:svg="http://www.w3.org/2000/svg"
   xmlns="http://www.w3.org/2000/svg"
   xmlns:xlink="http://www.w3.org/1999/xlink"
   xmlns:sodipodi="http://sodipodi.sourceforge.net/DTD/sodipodi-0.dtd"
   xmlns:inkscape="http://www.inkscape.org/namespaces/inkscape"
   width="256"
   height="256"
   id="svg2"
   version="1.1"
   inkscape:version="0.48.4 r9939"
   sodipodi:docname="meadow.svg">
  <defs
     id="defs4">
    <linearGradient
       id="linearGradient3797">
      <stop
         style="stop-color:#ffffff;stop-opacity:0;"
         offset="0"
         id="stop3799" />
      <stop
         id="stop3819"
         offset="0.1891892"
         style="stop-color:#ffffff;stop-opacity:0.49392712;" />
      <stop
         id="stop3817"
         offset="0.27027026"
         style="stop-color:#ffffff;stop-opacity:0.02352941;" />
      <stop
         id="stop3815"
         offset="0.43243244"
         style="stop-color:#ffffff;stop-opacity:0.04705882;" />
      <stop
         id="stop3813"
         offset="0.45945945"
         style="stop-color:#ffffff;stop-opacity:0.74089068;" />
      <stop
         id="stop3811"
         offset="0.67567569"
         style="stop-color:#ffffff;stop-opacity:0;" />
      <stop
         id="stop3809"
         offset="0.8918919"
         style="stop-color:#ffffff;stop-opacity:0.72874492;" />
      <stop
         id="stop3807"
         offset="0.93548387"
         style="stop-color:#ffffff;stop-opacity:1;" />
      <stop
         id="stop3805"
         offset="1"
         style="stop-color:#eeeeec;stop-opacity:0.1659919;" />
    </linearGradient>
    <linearGradient
       inkscape:collect="always"
       xlink:href="#linearGradient3797"
       id="linearGradient3803"
       x1="-24"
       y1="240"
       x2="272"
       y2="-8"
       gradientUnits="userSpaceOnUse" />
    <filter
       inkscape:collect="always"
       id="filter3857"
       x="-0.3"
       width="1.6"
       y="-0.3"
       height="1.6">
      <feGaussianBlur
         inkscape:collect="always"
         stdDeviation="1"
         id="feGaussianBlur3859" />
    </filter>
    <filter
       inkscape:collect="always"
       id="filter3867">
      <feGaussianBlur
         inkscape:collect="always"
         stdDeviation="0.2"
         id="feGaussianBlur3869" />
    </filter>
  </defs>
  <sodipodi:namedview
     id="base"
     pagecolor="#ffffff"
     bordercolor="#666666"
     borderopacity="1.0"
     inkscape:pageopacity="0.0"
     inkscape:pageshadow="2"
     inkscape:zoom="0.98994949"
     inkscape:cx="166.96236"
     inkscape:cy="85.336041"
     inkscape:document-units="px"
     inkscape:current-layer="layer1"
     showgrid="true"
     inkscape:window-width="1366"
     inkscape:window-height="744"
     inkscape:window-x="0"
     inkscape:window-y="24"
     inkscape:window-maximized="1">
    <inkscape:grid
       type="xygrid"
       id="grid2985"
       empspacing="4"
       visible="true"
       enabled="true"
       snapvisiblegridlinesonly="true" />
  </sodipodi:namedview>
  <metadata
     id="metadata7">
    <rdf:RDF>
      <cc:Work
         rdf:about="">
        <dc:format>image/svg+xml</dc:format>
        <dc:type
           rdf:resource="http://purl.org/dc/dcmitype/StillImage" />
        <dc:title></dc:title>
      </cc:Work>
    </rdf:RDF>
  </metadata>
  <g
     inkscape:label="Ebene 1"
     inkscape:groupmode="layer"
     id="layer1"
     transform="translate(0,-796.36218)">
    <rect
       rx="8"
       ry="8"
       y="782.36218"
       x="-24"
       height="296"
       width="304"
       id="rect3786"
       style="color:#000000;fill:#2e3436;fill-opacity:1;fill-rule:nonzero;stroke:none;stroke-width:0.44999999;marker:none;visibility:visible;display:inline;overflow:visible;enable-background:accumulate" />
    <rect
       style="color:#000000;fill:#000000;fill-opacity:1;fill-rule:nonzero;stroke:none;stroke-width:0.44999999000000002;marker:none;visibility:visible;display:inline;overflow:visible;enable-background:accumulate"
       id="rect3012"
       width="304"
       height="296"
       x="-24"
       y="-16"
       transform="translate(0,796.36218)"
       ry="8"
       rx="8" />
    <path
       style="color:#000000;fill:url(#linearGradient3803);fill-opacity:1;fill-rule:nonzero;stroke:none;stroke-width:0.44999999000000002;marker:none;visibility:visible;display:inline;overflow:visible;enable-background:accumulate;opacity:0.5"
       d="M -16 -15 C -19.895297 -15 -23 -11.8953 -23 -8 L -23 272 C -23 275.8953 -19.895297 279 -16 279 L 272 279 C 275.8953 279 279 275.8953 279 272 L 279 -8 C 279 -11.8953 275.8953 -15 272 -15 L -16 -15 z "
       transform="translate(0,796.36218)"
       id="rect3788" />
    <text
       xml:space="preserve"
       style="font-size:18.06588745px;font-style:normal;font-weight:normal;line-height:125%;letter-spacing:0px;word-spacing:0px;fill:#000000;fill-opacity:1;stroke:none;font-family:Sans"
       x="0.10585481"
       y="1068.3622"
       id="text3014"
       sodipodi:linespacing="125%"><tspan
         sodipodi:role="line"
         id="tspan3016"
         x="0.10585481"
         y="1068.3622"
         style="font-style:italic;font-variant:normal;font-weight:bold;font-stretch:normal;fill:#ffffff;fill-opacity:1;font-family:Carlito;-inkscape-font-specification:Carlito Bold Italic">SnakeBites</tspan></text>
    <path
       sodipodi:type="arc"
       style="opacity:1;color:#000000;fill:#00ff1b;fill-opacity:1;fill-rule:nonzero;stroke:none;stroke-width:2;stroke-linecap:round;stroke-linejoin:round;stroke-miterlimit:4;stroke-opacity:1;stroke-dasharray:none;stroke-dashoffset:0;marker:none;visibility:visible;display:inline;overflow:visible;enable-background:accumulate;filter:url(#filter3857)"
       id="path3823"
       sodipodi:cx="236"
       sodipodi:cy="268"
       sodipodi:rx="4"
       sodipodi:ry="4"
       d="m 240,268 a 4,4 0 1 1 -8,0 4,4 0 1 1 8,0 z"
       transform="translate(0,796.36218)" />
    <path
       transform="matrix(0.60140306,0,0,0.60140306,94.068881,903.18616)"
       d="m 240,268 a 4,4 0 1 1 -8,0 4,4 0 1 1 8,0 z"
       sodipodi:ry="4"
       sodipodi:rx="4"
       sodipodi:cy="268"
       sodipodi:cx="236"
       id="path3861"
       style="color:#000000;fill:#ffffff;fill-opacity:1;fill-rule:nonzero;stroke:none;stroke-width:2;marker:none;visibility:visible;display:inline;overflow:visible;filter:url(#filter3867);enable-background:accumulate;opacity:0.75"
       sodipodi:type="arc" />
    <path
       transform="translate(0,796.36218)"
       d="m 240,268 a 4,4 0 1 1 -8,0 4,4 0 1 1 8,0 z"
       sodipodi:ry="4"
       sodipodi:rx="4"
       sodipodi:cy="268"
       sodipodi:cx="236"
       id="path3871"
       style="opacity:1;color:#000000;fill:#00ff1b;fill-opacity:1;fill-rule:nonzero;stroke:none;stroke-width:2;stroke-linecap:round;stroke-linejoin:round;stroke-miterlimit:4;stroke-opacity:1;stroke-dasharray:none;stroke-dashoffset:0;marker:none;visibility:visible;display:inline;overflow:visible;enable-background:accumulate;filter:url(#filter3857)"
       sodipodi:type="arc" />
    <path
       sodipodi:type="arc"
       style="color:#000000;fill:#ffffff;fill-opacity:1;fill-rule:nonzero;stroke:none;stroke-width:2;marker:none;visibility:visible;display:inline;overflow:visible;filter:url(#filter3867);enable-background:accumulate;opacity:0.75"
       id="path3873"
       sodipodi:cx="236"
       sodipodi:cy="268"
       sodipodi:rx="4"
       sodipodi:ry="4"
       d="m 240,268 a 4,4 0 1 1 -8,0 4,4 0 1 1 8,0 z"
       transform="matrix(0.60140306,0,0,0.60140306,94.068881,903.18616)" />
    <path
       sodipodi:type="arc"
       style="color:#000000;fill:#00e1ff;fill-opacity:1;fill-rule:nonzero;stroke:none;stroke-width:2;marker:none;visibility:visible;display:inline;overflow:visible;filter:url(#filter3857);enable-background:accumulate"
       id="path3875"
       sodipodi:cx="236"
       sodipodi:cy="268"
       sodipodi:rx="4"
       sodipodi:ry="4"
       d="m 240,268 a 4,4 0 1 1 -8,0 4,4 0 1 1 8,0 z"
       transform="translate(16,796.36218)" />
    <path
       transform="translate(16,796.36218)"
       d="m 240,268 a 4,4 0 1 1 -8,0 4,4 0 1 1 8,0 z"
       sodipodi:ry="4"
       sodipodi:rx="4"
       sodipodi:cy="268"
       sodipodi:cx="236"
       id="path3885"
       style="color:#000000;fill:#00e1ff;fill-opacity:1;fill-rule:nonzero;stroke:none;stroke-width:2;marker:none;visibility:visible;display:inline;overflow:visible;filter:url(#filter3857);enable-background:accumulate"
       sodipodi:type="arc" />
    <path
       transform="matrix(0.60140306,0,0,0.60140306,110.06888,903.18616)"
       d="m 240,268 a 4,4 0 1 1 -8,0 4,4 0 1 1 8,0 z"
       sodipodi:ry="4"
       sodipodi:rx="4"
       sodipodi:cy="268"
       sodipodi:cx="236"
       id="path3877"
       style="opacity:0.75;color:#000000;fill:#ffffff;fill-opacity:1;fill-rule:nonzero;stroke:none;stroke-width:2;marker:none;visibility:visible;display:inline;overflow:visible;filter:url(#filter3867);enable-background:accumulate"
       sodipodi:type="arc" />
  </g>
</svg>
